{
  "extends": [
    "tslint-microsoft-contrib"
  ],
  "rules": {
    "mocha-no-side-effect-code": false,
    "missing-jsdoc": false,
    "no-relative-imports": false,
    "export-name": false,
    "promise-function-async": false,
    "no-void-expression": false,
    "trailing-comma": [
      true,
      {
        "multiline": "always",
        "singleline": "never"
      }
    ],
    "typedef": [
      true,
      "parameter",
      "arrow-parameter",
      "property-declaration",
      "member-variable-declaration"
    ]
  }
}
